{
    "editor.tabCompletion": "on",
    "vim.easymotion": true,
    "typescript.updateImportsOnFileMove.enabled": "always",
    "javascript.updateImportsOnFileMove.enabled": "always",
    "git.autofetch": true,
    "[json]": {
        "editor.defaultFormatter": "esbenp.prettier-vscode"
    },
    "[typescript]": {
        "editor.defaultFormatter": "vscode.typescript-language-features"
    },
    "diffEditor.codeLens": true,
    "javascript.referencesCodeLens.enabled": true,
    "typescript.referencesCodeLens.enabled": true,
    "javascript.referencesCodeLens.showOnAllFunctions": true,
    "typescript.implementationsCodeLens.enabled": true,
    "typescript.referencesCodeLens.showOnAllFunctions": true,
    "diffEditor.ignoreTrimWhitespace": false,
    "explorer.confirmDelete": false,
    "[typescriptreact]": {
        "editor.defaultFormatter": "vscode.typescript-language-features"
    },
    "explorer.confirmDragAndDrop": false,
    "window.zoomLevel": 0,
    "php.validate.executablePath": "/usr/bin/php",
    "yaml.schemas": {
        "file:///home/chris/.vscode/extensions/atlassian.atlascode-2.8.5/resources/schemas/pipelines-schema.json": "bitbucket-pipelines.yml"
    },
    "atlascode.jira.jqlList": [
        {
            "id": "5f487410-d47d-4d35-a4db-66b830809354",
            "enabled": true,
            "name": "My steinsvik Issues",
            "query": "assignee = currentUser() AND resolution = Unresolved ORDER BY lastViewed DESC",
            "siteId": "0f55257e-0ee8-4e1b-8654-a4523440837e",
            "monitor": true
        }
    ],
    "[html]": {
        "editor.defaultFormatter": "vscode.html-language-features"
    },
    "projectManager.any.ignoredFolders": [
        "node_modules",
        "out",
        "typings",
        "test",
        "node_modules"
    ],
    "files.exclude": {
        "node_modules": true
    }
}